var weights =[72,67,82,93,88];
var heights =[2,1.6,2.2,3,4];
var bmi ;
for(var j=0;j<weights.length;j++){
  
   bmi = weights[j]/(heights[j]*heights[j]);
  if(bmi<25){
    console.log("Normal")
  }
  else if(bmi>=25 && bmi[j]<=30){
    console.log("Over weight")
  }
  else{
    console.log("obese")
  }
}